 ****** HSPICE -- A-2008.03 32-BIT (Feb 26 2008) winnt ******                   
  Copyright (C) 2008 Synopsys, Inc. All Rights Reserved.                        
  Unpublished-rights reserved under US copyright laws.
  This program is protected by law and is subject to the 
  terms and conditions of the license agreement found in:
    C:\synopsys\Hspice_A-2008.03\license.warn
  Use of this program is your acceptance to be bound by this 
  license agreement. HSPICE is the trademark of Synopsys, Inc.
  Input File: \\mac\home\desktop\uni\vlsi\ca4\codes\p2\p2.sp                    
 Init: read install configuration file: C:\synopsys\Hspice_A-2008.03\meta.cfg
 Init: hspice initialization file: C:\synopsys\Hspice_A-2008.03\hspice.ini






 **** parameters ****
 .param			lmin=100n
 +beta=2
 +wp='2*lmin*beta'
 +wn='2*lmin'
 +vdd=1v

 **** source voltage ****

 vsupply		vs		gnd		dc		vdd
 vin1		  clk   0     pulse 1v  0  0   50ps  50ps  2ns  4ns

 **** subkits ****
 .subckt		inv	  in    out	    gnd	  vs
 mip		    out		in		vs			vs		pch_lvt		l='lmin'		w='wp'	
 min		    out   in  	gnd   	gnd   nch_lvt  	l='lmin' 		w='wn'
 .ends	inv

 .subckt		xor		a  	  b		    out		gnd		    vs
 mxp1		  x		  bb		vs			vs		pch_lvt		l='lmin'		w='2*wp'
 mxp2		  out		a		  x			  x		  pch_lvt		l='lmin'		w='2*wp'
 mxp3		  y		  b		  vs			vs		pch_lvt		l='lmin'		w='2*wp'
 mxp4		  out		ab		y		  	y		  pch_lvt		l='lmin'		w='2*wp'
 mxn1		  z	  	a		  gnd			gnd		nch_lvt		l='lmin'		w='2*wn'
 mxn2		  out		b		  z			  z		  nch_lvt		l='lmin'		w='2*wn'
 mxn3		  w		  ab		gnd			gnd		nch_lvt		l='lmin'		w='2*wn'
 mxn4		  out		bb		w		  	w		  nch_lvt		l='lmin'		w='2*wn'

 xxorinv1	a		  ab		gnd		  vs		inv
 xxorinv2	b		  bb		gnd		  vs		inv
 .ends		xor

 .subckt		nand	a  	  b		    out		gnd		    vs
 mnp1		  out		a		  vs			vs		pch_lvt		l='lmin'		w='wp'
 mnp2		  out		b		  vs			vs		pch_lvt		l='lmin'		w='wp'	
 mnn1		  x    	a  	  gnd   	gnd   nch_lvt  	l='lmin' 		w='2*wn'
 mnn2		  out   b  	  x   		x  		nch_lvt  	l='lmin' 		w='2*wn'
 .ends	nand

 .subckt		dff		d		  qs		  clk		gnd		    vs
 xdffinv1	clk		clkb		gnd		vs		inv

 mdffp1		qm		clkb	qmbb	qmbb	pch_lvt		l='lmin'		w='wp'
 mdffn1		qm		clk		qmbb	qmbb	nch_lvt		l='lmin'		w='wn'
 mdffp2		d		  clk		qmbb	qmbb	pch_lvt		l='lmin'		w='wp'
 mdffn2		d		  clkb	qmbb	qmbb	nch_lvt		l='lmin'		w='wn'
 xdffinv2	qmbb	qmb		gnd		vs		inv
 xdffinv3	qmb		qm		gnd		vs		inv

 mdffp3		qs		clk		qsbb	qsbb	pch_lvt		l='lmin'		w='wp'
 mdffn3		qs		clkb	qsbb	qsbb	nch_lvt		l='lmin'		w='wn'
 mdffp4		qm		clkb	qsbb	qsbb	pch_lvt		l='lmin'		w='wp'
 mdffn4		qm		clk		qsbb	qsbb	nch_lvt		l='lmin'		w='wn'
 xdffinv4	qsbb	qsb		gnd		vs		inv
 xdffinv5	qsb		qs		gnd		vs		inv
 .ends	dff 

 .subckt		ha		  a		  b		    cout	sum		    gnd		      vs
 xhanand	  a  		  b		  cout_b	gnd		vs		    nand
 xhainv	  cout_b	cout	gnd		  vs		inv
 xhaxor	  a  		  b		  sum		  gnd		vs		    xor
 .ends		ha 

 .subckt		fa		a		b		cin		cout	sum		gnd		vs
 mfap1		  x		    a		  vs		vs		pch_lvt		l='lmin'		w='3*wp'
 mfap2		  y			  b		  x		  x		  pch_lvt		l='lmin'		w='3*wp'
 mfap3		  coutb		a		  y		  y		  pch_lvt		l='lmin'		w='3*wp'
 mfap4		  x			  b		  vs		vs		pch_lvt		l='lmin'		w='2*wp'
 mfap5		  coutb		cin		x		  x		  pch_lvt		l='lmin'		w='2*wp'
 mfan6		  z			  a		  gnd		gnd		nch_lvt		l='lmin'		w='2*wn'
 mfan7		  z			  b		  gnd		gnd		nch_lvt		l='lmin'		w='2*wn'
 mfan8		  coutb		cin		z		  z		  nch_lvt		l='lmin'		w='2*wn'
 mfan9		  w			  b		  gnd		gnd		nch_lvt		l='lmin'		w='2*wn'
 mfan10		coutb		a		  w		  w		  nch_lvt		l='lmin'		w='2*wn'
 mfap11	  v		    a		  vs		vs		pch_lvt		l='lmin'		w='4*wp'
 mfap12		v		    b		  vs		vs		pch_lvt		l='lmin'		w='4*wp'
 mfap13		v		    cin		vs		vs		pch_lvt		l='lmin'		w='4*wp'
 mfap14		u		    a		  v		  v		  pch_lvt		l='lmin'		w='4*wp'
 mfap15		t		    b		  u		  u		  pch_lvt		l='lmin'		w='4*wp'
 mfap16		sumb	  cin		t		  t		  pch_lvt		l='lmin'		w='4*wp'
 mfap17		sumb	  coutb	v		  v		  pch_lvt		l='lmin'		w='0.66*wp'
 mfan18		s		    a		  gnd		gnd		nch_lvt		l='lmin'		w='2*wn'
 mfan19		s		    b		  gnd		gnd		nch_lvt		l='lmin'		w='2*wn'
 mfan20		s		    cin		gnd		gnd		nch_lvt		l='lmin'		w='2*wn'
 mfan21		r		    a		  gnd		gnd		nch_lvt		l='lmin'		w='3*wn'
 mfan22		q		    b		  r		  r		  nch_lvt		l='lmin'		w='3*wn'
 mfan23		sumb	  cin		q		  q		  nch_lvt		l='lmin'		w='3*wn'
 mfan24		sumb	  coutb	s		  s		  nch_lvt		l='lmin'		w='2*wn'

 xfainv1	  coutb		cout	gnd		vs		inv
 xfainv2	  sumb		sum		gnd		vs		inv
 .ends	fa	

 .subckt   onebitadderha   clk   x       y         sum         co        gnd		vs
 xhaadddff1	x		    xdff	clk		gnd		  vs		    dff
 xhaadddff2	y		    ydff	clk		gnd		  vs		    dff
 xaddha		  xdff		ydff  co		sumdff	gnd		    vs		      ha
 xhaadddff3	sumdff	sum		clk		gnd		  vs		    dff
 .ends onebitadderha

 .subckt   onebitadderfa   clk   x       y         cin     sum     co    gnd		vs
 xfaadddff1	x		    xdff	clk		gnd		  vs		    dff
 xfaadddff2	y		    ydff	clk		gnd		  vs		    dff
 xaddfa	    xdff		ydff	cin		co		  sumdff	  gnd		  vs		  fa
 xfaadddff3	sumdff	sum		clk		gnd		  vs		    dff
 .ends onebitadderfa

 **** circuit ****
 xa1 clk x0 y0  sum0 co0       gnd		vs onebitadderha
 xa2 clk x1 y1  co0  sum1 co1  gnd		vs onebitadderfa
 xa3 clk x2 y2  co1  sum2 co2  gnd		vs onebitadderfa
 xa4 clk x3 y3  co2  sum3 co3  gnd		vs onebitadderfa
 xa5 clk x4 y4  co3  sum4 co4  gnd		vs onebitadderfa
 xa6 clk x5 y5  co4  sum5 co5  gnd		vs onebitadderfa
 xa7 clk x6 y6  co5  sum6 co6  gnd		vs onebitadderfa
 xa8 clk x7 y7  co6  sum7 coo  gnd		vs onebitadderfa

 **** analysis ****
 .tran 	0.1ns	200n
 .vec 'cp.txt'

 **** measurements ****
 .measure avg_current
 +avg i(vdd) from = 2n to 200n
 .measure avg_power param = ('avg_current * vdd')
 .measure tpdr
 + trig v(x0)    val=0.5   fall=1
 + targ v(sum7)  val=0.5   rise=1
 .measure tpdf
 + trig v(x0)    val=0.5   rise=1
 + targ v(sum7)  val=0.5   fall=1
 .measure tpd param='(tpdr+tpdf)/2'

 ***********************************************************************
 ** runlvl is invoked, you can disable it by:
      a) Add option runlvl=0 to your current simulation job.
      b) Copy $installdir/hspice.ini to your HOME directory and
         customize it by adding option runlvl=0, which disables
         it for all of your simulation jobs.
      c) Re-invoke $installdir/bin/config program and unselect the
         option runlvl setting in box 'hspice.ini' which disables
         it for whole group simulation jobs.

 ** runlvl is invoked, some options are ignored or automatically set:
      Options below are automatically set(user setting will overwrite them):
      if runlvl=6,            .option bypass=0
      if runlvl=[1|2|3|4|5],  .option bypass=2

      Options below are ignored, they are replaced by automated algorithms:
        lvltim    dvdt      ft    fast   trtol  absvar  relvar
          relq  chgtol    dvtr    imin    itl3    rmax

 ** runlvl is invoked, actual option value used by HSPICE are:
       runlvl= 3       bypass= 2      mbypass=   2.00   bytol= 100.00u
 ***********************************************************************

1****** HSPICE -- A-2008.03 32-BIT (Feb 26 2008) winnt ******                   
 ******  
 * ehsan jahangirzadeh 810194554                                                
  ******  circuit name directory                                                
 ******  
 circuit number to circuit name directory
   number circuitname                     definition         multiplier
        0 main circuit
        1 xa1.                            onebitadderha      1.00 
        2 xa2.                            onebitadderfa      1.00 
        3 xa3.                            onebitadderfa      1.00 
        4 xa4.                            onebitadderfa      1.00 
        5 xa5.                            onebitadderfa      1.00 
        6 xa6.                            onebitadderfa      1.00 
        7 xa7.                            onebitadderfa      1.00 
        8 xa8.                            onebitadderfa      1.00 
        9 xa1.xhaadddff1.                 dff                1.00 
       10 xa1.xhaadddff2.                 dff                1.00 
       11 xa1.xaddha.                     ha                 1.00 
       12 xa1.xhaadddff3.                 dff                1.00 
       13 xa2.xfaadddff1.                 dff                1.00 
       14 xa2.xfaadddff2.                 dff                1.00 
       15 xa2.xaddfa.                     fa                 1.00 
       16 xa2.xfaadddff3.                 dff                1.00 
       17 xa3.xfaadddff1.                 dff                1.00 
       18 xa3.xfaadddff2.                 dff                1.00 
       19 xa3.xaddfa.                     fa                 1.00 
       20 xa3.xfaadddff3.                 dff                1.00 
       21 xa4.xfaadddff1.                 dff                1.00 
       22 xa4.xfaadddff2.                 dff                1.00 
       23 xa4.xaddfa.                     fa                 1.00 
       24 xa4.xfaadddff3.                 dff                1.00 
       25 xa5.xfaadddff1.                 dff                1.00 
       26 xa5.xfaadddff2.                 dff                1.00 
       27 xa5.xaddfa.                     fa                 1.00 
       28 xa5.xfaadddff3.                 dff                1.00 
       29 xa6.xfaadddff1.                 dff                1.00 
       30 xa6.xfaadddff2.                 dff                1.00 
       31 xa6.xaddfa.                     fa                 1.00 
       32 xa6.xfaadddff3.                 dff                1.00 
       33 xa7.xfaadddff1.                 dff                1.00 
       34 xa7.xfaadddff2.                 dff                1.00 
       35 xa7.xaddfa.                     fa                 1.00 
       36 xa7.xfaadddff3.                 dff                1.00 
       37 xa8.xfaadddff1.                 dff                1.00 
       38 xa8.xfaadddff2.                 dff                1.00 
       39 xa8.xaddfa.                     fa                 1.00 
       40 xa8.xfaadddff3.                 dff                1.00 
       41 xa1.xhaadddff1.xdffinv1.        inv                1.00 
       42 xa1.xhaadddff1.xdffinv2.        inv                1.00 
       43 xa1.xhaadddff1.xdffinv3.        inv                1.00 
       44 xa1.xhaadddff1.xdffinv4.        inv                1.00 
       45 xa1.xhaadddff1.xdffinv5.        inv                1.00 
       46 xa1.xhaadddff2.xdffinv1.        inv                1.00 
       47 xa1.xhaadddff2.xdffinv2.        inv                1.00 
       48 xa1.xhaadddff2.xdffinv3.        inv                1.00 
       49 xa1.xhaadddff2.xdffinv4.        inv                1.00 
       50 xa1.xhaadddff2.xdffinv5.        inv                1.00 
       51 xa1.xaddha.xhanand.             nand               1.00 
       52 xa1.xaddha.xhainv.              inv                1.00 
       53 xa1.xaddha.xhaxor.              xor                1.00 
       54 xa1.xhaadddff3.xdffinv1.        inv                1.00 
       55 xa1.xhaadddff3.xdffinv2.        inv                1.00 
       56 xa1.xhaadddff3.xdffinv3.        inv                1.00 
       57 xa1.xhaadddff3.xdffinv4.        inv                1.00 
       58 xa1.xhaadddff3.xdffinv5.        inv                1.00 
       59 xa2.xfaadddff1.xdffinv1.        inv                1.00 
       60 xa2.xfaadddff1.xdffinv2.        inv                1.00 
       61 xa2.xfaadddff1.xdffinv3.        inv                1.00 
       62 xa2.xfaadddff1.xdffinv4.        inv                1.00 
       63 xa2.xfaadddff1.xdffinv5.        inv                1.00 
       64 xa2.xfaadddff2.xdffinv1.        inv                1.00 
       65 xa2.xfaadddff2.xdffinv2.        inv                1.00 
       66 xa2.xfaadddff2.xdffinv3.        inv                1.00 
       67 xa2.xfaadddff2.xdffinv4.        inv                1.00 
       68 xa2.xfaadddff2.xdffinv5.        inv                1.00 
       69 xa2.xaddfa.xfainv1.             inv                1.00 
       70 xa2.xaddfa.xfainv2.             inv                1.00 
       71 xa2.xfaadddff3.xdffinv1.        inv                1.00 
       72 xa2.xfaadddff3.xdffinv2.        inv                1.00 
       73 xa2.xfaadddff3.xdffinv3.        inv                1.00 
       74 xa2.xfaadddff3.xdffinv4.        inv                1.00 
       75 xa2.xfaadddff3.xdffinv5.        inv                1.00 
       76 xa3.xfaadddff1.xdffinv1.        inv                1.00 
       77 xa3.xfaadddff1.xdffinv2.        inv                1.00 
       78 xa3.xfaadddff1.xdffinv3.        inv                1.00 
       79 xa3.xfaadddff1.xdffinv4.        inv                1.00 
       80 xa3.xfaadddff1.xdffinv5.        inv                1.00 
       81 xa3.xfaadddff2.xdffinv1.        inv                1.00 
       82 xa3.xfaadddff2.xdffinv2.        inv                1.00 
       83 xa3.xfaadddff2.xdffinv3.        inv                1.00 
       84 xa3.xfaadddff2.xdffinv4.        inv                1.00 
       85 xa3.xfaadddff2.xdffinv5.        inv                1.00 
       86 xa3.xaddfa.xfainv1.             inv                1.00 
       87 xa3.xaddfa.xfainv2.             inv                1.00 
       88 xa3.xfaadddff3.xdffinv1.        inv                1.00 
       89 xa3.xfaadddff3.xdffinv2.        inv                1.00 
       90 xa3.xfaadddff3.xdffinv3.        inv                1.00 
       91 xa3.xfaadddff3.xdffinv4.        inv                1.00 
       92 xa3.xfaadddff3.xdffinv5.        inv                1.00 
       93 xa4.xfaadddff1.xdffinv1.        inv                1.00 
       94 xa4.xfaadddff1.xdffinv2.        inv                1.00 
       95 xa4.xfaadddff1.xdffinv3.        inv                1.00 
       96 xa4.xfaadddff1.xdffinv4.        inv                1.00 
       97 xa4.xfaadddff1.xdffinv5.        inv                1.00 
       98 xa4.xfaadddff2.xdffinv1.        inv                1.00 
       99 xa4.xfaadddff2.xdffinv2.        inv                1.00 
      100 xa4.xfaadddff2.xdffinv3.        inv                1.00 
      101 xa4.xfaadddff2.xdffinv4.        inv                1.00 
      102 xa4.xfaadddff2.xdffinv5.        inv                1.00 
      103 xa4.xaddfa.xfainv1.             inv                1.00 
      104 xa4.xaddfa.xfainv2.             inv                1.00 
      105 xa4.xfaadddff3.xdffinv1.        inv                1.00 
      106 xa4.xfaadddff3.xdffinv2.        inv                1.00 
      107 xa4.xfaadddff3.xdffinv3.        inv                1.00 
      108 xa4.xfaadddff3.xdffinv4.        inv                1.00 
      109 xa4.xfaadddff3.xdffinv5.        inv                1.00 
      110 xa5.xfaadddff1.xdffinv1.        inv                1.00 
      111 xa5.xfaadddff1.xdffinv2.        inv                1.00 
      112 xa5.xfaadddff1.xdffinv3.        inv                1.00 
      113 xa5.xfaadddff1.xdffinv4.        inv                1.00 
      114 xa5.xfaadddff1.xdffinv5.        inv                1.00 
      115 xa5.xfaadddff2.xdffinv1.        inv                1.00 
      116 xa5.xfaadddff2.xdffinv2.        inv                1.00 
      117 xa5.xfaadddff2.xdffinv3.        inv                1.00 
      118 xa5.xfaadddff2.xdffinv4.        inv                1.00 
      119 xa5.xfaadddff2.xdffinv5.        inv                1.00 
      120 xa5.xaddfa.xfainv1.             inv                1.00 
      121 xa5.xaddfa.xfainv2.             inv                1.00 
      122 xa5.xfaadddff3.xdffinv1.        inv                1.00 
      123 xa5.xfaadddff3.xdffinv2.        inv                1.00 
      124 xa5.xfaadddff3.xdffinv3.        inv                1.00 
      125 xa5.xfaadddff3.xdffinv4.        inv                1.00 
      126 xa5.xfaadddff3.xdffinv5.        inv                1.00 
      127 xa6.xfaadddff1.xdffinv1.        inv                1.00 
      128 xa6.xfaadddff1.xdffinv2.        inv                1.00 
      129 xa6.xfaadddff1.xdffinv3.        inv                1.00 
      130 xa6.xfaadddff1.xdffinv4.        inv                1.00 
      131 xa6.xfaadddff1.xdffinv5.        inv                1.00 
      132 xa6.xfaadddff2.xdffinv1.        inv                1.00 
      133 xa6.xfaadddff2.xdffinv2.        inv                1.00 
      134 xa6.xfaadddff2.xdffinv3.        inv                1.00 
      135 xa6.xfaadddff2.xdffinv4.        inv                1.00 
      136 xa6.xfaadddff2.xdffinv5.        inv                1.00 
      137 xa6.xaddfa.xfainv1.             inv                1.00 
      138 xa6.xaddfa.xfainv2.             inv                1.00 
      139 xa6.xfaadddff3.xdffinv1.        inv                1.00 
      140 xa6.xfaadddff3.xdffinv2.        inv                1.00 
      141 xa6.xfaadddff3.xdffinv3.        inv                1.00 
      142 xa6.xfaadddff3.xdffinv4.        inv                1.00 
      143 xa6.xfaadddff3.xdffinv5.        inv                1.00 
      144 xa7.xfaadddff1.xdffinv1.        inv                1.00 
      145 xa7.xfaadddff1.xdffinv2.        inv                1.00 
      146 xa7.xfaadddff1.xdffinv3.        inv                1.00 
      147 xa7.xfaadddff1.xdffinv4.        inv                1.00 
      148 xa7.xfaadddff1.xdffinv5.        inv                1.00 
      149 xa7.xfaadddff2.xdffinv1.        inv                1.00 
      150 xa7.xfaadddff2.xdffinv2.        inv                1.00 
      151 xa7.xfaadddff2.xdffinv3.        inv                1.00 
      152 xa7.xfaadddff2.xdffinv4.        inv                1.00 
      153 xa7.xfaadddff2.xdffinv5.        inv                1.00 
      154 xa7.xaddfa.xfainv1.             inv                1.00 
      155 xa7.xaddfa.xfainv2.             inv                1.00 
      156 xa7.xfaadddff3.xdffinv1.        inv                1.00 
      157 xa7.xfaadddff3.xdffinv2.        inv                1.00 
      158 xa7.xfaadddff3.xdffinv3.        inv                1.00 
      159 xa7.xfaadddff3.xdffinv4.        inv                1.00 
      160 xa7.xfaadddff3.xdffinv5.        inv                1.00 
      161 xa8.xfaadddff1.xdffinv1.        inv                1.00 
      162 xa8.xfaadddff1.xdffinv2.        inv                1.00 
      163 xa8.xfaadddff1.xdffinv3.        inv                1.00 
      164 xa8.xfaadddff1.xdffinv4.        inv                1.00 
      165 xa8.xfaadddff1.xdffinv5.        inv                1.00 
      166 xa8.xfaadddff2.xdffinv1.        inv                1.00 
      167 xa8.xfaadddff2.xdffinv2.        inv                1.00 
      168 xa8.xfaadddff2.xdffinv3.        inv                1.00 
      169 xa8.xfaadddff2.xdffinv4.        inv                1.00 
      170 xa8.xfaadddff2.xdffinv5.        inv                1.00 
      171 xa8.xaddfa.xfainv1.             inv                1.00 
      172 xa8.xaddfa.xfainv2.             inv                1.00 
      173 xa8.xfaadddff3.xdffinv1.        inv                1.00 
      174 xa8.xfaadddff3.xdffinv2.        inv                1.00 
      175 xa8.xfaadddff3.xdffinv3.        inv                1.00 
      176 xa8.xfaadddff3.xdffinv4.        inv                1.00 
      177 xa8.xfaadddff3.xdffinv5.        inv                1.00 
      178 xa1.xaddha.xhaxor.xxorinv1.     inv                1.00 
      179 xa1.xaddha.xhaxor.xxorinv2.     inv                1.00 

 **warning** dc voltage reset to initial transient source value
             in source        0:vin1                new dc=  0.1000D+01

 **warning** could not find branch element     0:vdd             
      branch - output ignored
 **warning** node co               can't be found, so its signal will be ignored
 
      
  Opening plot unit= 79
 file=\\mac\home\desktop\uni\vlsi\ca4\codes\p2\p2.pa0                          


 **diagnostic** rebuilding matrix with pivot option


 **diagnostic** rebuilding matrix without pivot option


 **diagnostic** dc convergence failure, 
 resetting dcon option to 1 and retrying

 **diagnostic** dc convergence successful
 you can increase the efficiency of the
 operating point calculation by setting dcon= 1
 in the .option statement
1****** HSPICE -- A-2008.03 32-BIT (Feb 26 2008) winnt ******                   
 ******  
 * ehsan jahangirzadeh 810194554                                                
  ******  operating point information      tnom=  25.000 temp=  25.000          
 ******  
 ***** operating point status is voltage   simulation time is     0.     
      node    =voltage        node    =voltage        node    =voltage

 +  0:clk     =   1.0000    0:co0     = 237.5219u   0:co1     =  87.5201u
 +  0:co2     =  85.7896u   0:co3     = 105.4483u   0:co4     =  85.8215u
 +  0:co5     =  87.4770u   0:co6     = 105.4134u   0:coo     = 101.4393u
 +  0:sum0    = 454.6250m   0:sum1    = 446.6872m   0:sum2    = 446.7412m
 +  0:sum3    = 999.9185m   0:sum4    = 446.7411m   0:sum5    = 446.6874m
 +  0:sum6    = 446.4807m   0:sum7    = 446.4807m   0:vs      =   1.0000 
 +  0:x0      =   1.0000    0:x1      =   1.0000    0:x2      = 4.112e-20
 +  0:x3      = 4.112e-20   0:x4      = 4.112e-20   0:x5      =   1.0000 
 +  0:x6      = 4.112e-20   0:x7      = 4.112e-20   0:y0      = 4.112e-20
 +  0:y1      = 4.112e-20   0:y2      =   1.0000    0:y3      = 4.112e-20
 +  0:y4      =   1.0000    0:y5      = 4.112e-20   0:y6      = 4.112e-20
 +  0:y7      = 4.112e-20   1:sumdff  = 685.8450m   1:xdff    = 445.9109m
 +  1:ydff    = 464.2131m   2:sumdff  = 996.9979m   2:xdff    = 445.9310m
 +  2:ydff    = 464.2212m   3:sumdff  = 996.7796m   3:xdff    = 464.2275m
 +  3:ydff    = 445.9241m   4:sumdff  = 997.9610m   4:xdff    = 464.2273m
 +  4:ydff    = 464.2209m   5:sumdff  = 996.7797m   5:xdff    = 464.2275m
 +  5:ydff    = 445.9241m   6:sumdff  = 996.9971m   6:xdff    = 445.9310m
 +  6:ydff    = 464.2212m   7:sumdff  = 997.8207m   7:xdff    = 464.2273m
 +  7:ydff    = 464.2209m   8:sumdff  = 997.8208m   8:xdff    = 464.2273m
 +  8:ydff    = 464.2209m   9:clkb    =  14.0419u   9:qm      = 454.5140m
 +  9:qmb     = 454.7685m   9:qmbb    = 454.6111m   9:qsb     = 455.6206m
 +  9:qsbb    = 454.5141m  10:clkb    =  13.9575u  10:qm      = 454.7512m
 + 10:qmb     = 454.4725m  10:qmbb    = 454.6448m  10:qsb     = 453.5371m
 + 10:qsbb    = 454.7513m  11:cout_b  = 887.5285m  12:clkb    =  13.9880u
 + 12:qm      = 454.6271m  12:qmb     = 454.6274m  12:qmbb    = 454.6272m
 + 12:qsb     = 454.6274m  12:qsbb    = 454.6272m  13:clkb    =  14.0419u
 + 13:qm      = 454.5140m  13:qmb     = 454.7685m  13:qmbb    = 454.6111m
 + 13:qsb     = 455.6206m  13:qsbb    = 454.5141m  14:clkb    =  13.9575u
 + 14:qm      = 454.7512m  14:qmb     = 454.4725m  14:qmbb    = 454.6448m
 + 14:qsb     = 453.5371m  14:qsbb    = 454.7513m  15:coutb   = 929.1537m
 + 15:q       =  23.9449u  15:r       =  12.6763u  15:s       =  93.6975m
 + 15:sumb    = 145.3155m  15:t       = 439.3936m  15:u       = 881.0093m
 + 15:v       = 980.3099m  15:w       =  90.3111m  15:x       = 962.9300m
 + 15:y       = 945.9891m  15:z       =  42.6243u  16:clkb    =  14.0412u
 + 16:qm      = 454.5241m  16:qmb     = 454.7559m  16:qmbb    = 454.6126m
 + 16:qsb     = 455.5317m  16:qsbb    = 454.5242m  17:clkb    =  13.9575u
 + 17:qm      = 454.7512m  17:qmb     = 454.4725m  17:qmbb    = 454.6448m
 + 17:qsb     = 453.5371m  17:qsbb    = 454.7513m  18:clkb    =  14.0419u
 + 18:qm      = 454.5140m  18:qmb     = 454.7685m  18:qmbb    = 454.6111m
 + 18:qsb     = 455.6206m  18:qsbb    = 454.5141m  19:coutb   = 929.9700m
 + 19:q       =  24.1010u  19:r       =  11.4592u  19:s       =  96.1881m
 + 19:sumb    = 148.8590m  19:t       = 441.4617m  19:u       = 866.8083m
 + 19:v       = 979.9853m  19:w       = 109.0111m  19:x       = 963.1041m
 + 19:y       = 947.8111m  19:z       =  42.5107u  20:clkb    =  14.0412u
 + 20:qm      = 454.5248m  20:qmb     = 454.7550m  20:qmbb    = 454.6127m
 + 20:qsb     = 455.5256m  20:qsbb    = 454.5249m  21:clkb    =  13.9575u
 + 21:qm      = 454.7512m  21:qmb     = 454.4725m  21:qmbb    = 454.6448m
 + 21:qsb     = 453.5371m  21:qsbb    = 454.7513m  22:clkb    =  13.9575u
 + 22:qm      = 454.7512m  22:qmb     = 454.4725m  22:qmbb    = 454.6448m
 + 22:qsb     = 453.5371m  22:qsbb    = 454.7513m  23:coutb   = 921.3893m
 + 23:q       =  21.3052u  23:r       =  10.7116u  23:s       =  80.2082m
 + 23:sumb    = 129.2339m  23:t       = 432.8811m  23:u       = 876.2473m
 + 23:v       = 980.7830m  23:w       = 100.6891m  23:x       = 958.3048m
 + 23:y       = 940.6650m  23:z       =  39.6885u  24:clkb    =  15.3110u
 + 24:qm      = 999.9124m  24:qmb     =  14.4889u  24:qmbb    = 999.9097m
 + 24:qsb     =  14.4888u  24:qsbb    = 999.9099m  25:clkb    =  13.9575u
 + 25:qm      = 454.7512m  25:qmb     = 454.4725m  25:qmbb    = 454.6448m
 + 25:qsb     = 453.5371m  25:qsbb    = 454.7513m  26:clkb    =  14.0419u
 + 26:qm      = 454.5140m  26:qmb     = 454.7685m  26:qmbb    = 454.6111m
 + 26:qsb     = 455.6206m  26:qsbb    = 454.5141m  27:coutb   = 929.9695m
 + 27:q       =  24.1138u  27:r       =  11.4653u  27:s       =  96.1870m
 + 27:sumb    = 148.8575m  27:t       = 441.4760m  27:u       = 866.8093m
 + 27:v       = 979.9853m  27:w       = 109.0111m  27:x       = 963.1041m
 + 27:y       = 947.8109m  27:z       =  42.5327u  28:clkb    =  14.0412u
 + 28:qm      = 454.5248m  28:qmb     = 454.7550m  28:qmbb    = 454.6127m
 + 28:qsb     = 455.5256m  28:qsbb    = 454.5249m  29:clkb    =  14.0419u
 + 29:qm      = 454.5140m  29:qmb     = 454.7685m  29:qmbb    = 454.6111m
 + 29:qsb     = 455.6206m  29:qsbb    = 454.5141m  30:clkb    =  13.9575u
 + 30:qm      = 454.7512m  30:qmb     = 454.4725m  30:qmbb    = 454.6448m
 + 30:qsb     = 453.5371m  30:qsbb    = 454.7513m  31:coutb   = 929.1577m
 + 31:q       =  23.8370u  31:r       =  12.6194u  31:s       =  93.7071m
 + 31:sumb    = 145.3291m  31:t       = 439.2730m  31:u       = 881.0014m
 + 31:v       = 980.3098m  31:w       =  90.3113m  31:x       = 962.9302m
 + 31:y       = 945.9911m  31:z       =  42.4379u  32:clkb    =  14.0412u
 + 32:qm      = 454.5241m  32:qmb     = 454.7559m  32:qmbb    = 454.6126m
 + 32:qsb     = 455.5317m  32:qsbb    = 454.5242m  33:clkb    =  13.9575u
 + 33:qm      = 454.7512m  33:qmb     = 454.4725m  33:qmbb    = 454.6448m
 + 33:qsb     = 453.5371m  33:qsbb    = 454.7513m  34:clkb    =  13.9575u
 + 34:qm      = 454.7512m  34:qmb     = 454.4725m  34:qmbb    = 454.6448m
 + 34:qsb     = 453.5371m  34:qsbb    = 454.7513m  35:coutb   = 921.3892m
 + 35:q       =  21.3063u  35:r       =  10.7121u  35:s       =  80.2081m
 + 35:sumb    = 129.2337m  35:t       = 432.8825m  35:u       = 876.2473m
 + 35:v       = 980.7830m  35:w       = 100.6891m  35:x       = 958.3048m
 + 35:y       = 940.6650m  35:z       =  39.6904u  36:clkb    =  14.0414u
 + 36:qm      = 454.5215m  36:qmb     = 454.7592m  36:qmbb    = 454.6122m
 + 36:qsb     = 455.5553m  36:qsbb    = 454.5216m  37:clkb    =  13.9575u
 + 37:qm      = 454.7512m  37:qmb     = 454.4725m  37:qmbb    = 454.6448m
 + 37:qsb     = 453.5371m  37:qsbb    = 454.7513m  38:clkb    =  13.9575u
 + 38:qm      = 454.7512m  38:qmb     = 454.4725m  38:qmbb    = 454.6448m
 + 38:qsb     = 453.5371m  38:qsbb    = 454.7513m  39:coutb   = 921.3887m
 + 39:q       =  21.3177u  39:r       =  10.7178u  39:s       =  80.2073m
 + 39:sumb    = 129.2325m  39:t       = 432.8969m  39:u       = 876.2483m
 + 39:v       = 980.7830m  39:w       = 100.6890m  39:x       = 958.3047m
 + 39:y       = 940.6647m  39:z       =  39.7110u  40:clkb    =  14.0414u
 + 40:qm      = 454.5215m  40:qmb     = 454.7592m  40:qmbb    = 454.6122m
 + 40:qsb     = 455.5553m  40:qsbb    = 454.5216m  51:x       = 106.8694m
 + 53:ab      = 531.0916m  53:bb      = 371.7031m  53:w       =  35.4120m
 + 53:x       = 919.8122m  53:y       = 938.8205m  53:z       =  96.5927m

 **warning** node co               can't be found, so its signal will be ignored
 ******  
 * ehsan jahangirzadeh 810194554                                                
  ******  transient analysis               tnom=  25.000 temp=  25.000          
 ******  
   avg_current=  0.0000E+00  from=  2.0000E-09     to=  2.0000E-07
   avg_power=  0.0000E+00
   tpdr= failed       targ= not found    trig=  1.0005E-07
   tpdf= failed       targ= not found    trig=  1.5005E-07
   tpd= failed                         measure parameter failed

          ***** job concluded
1****** HSPICE -- A-2008.03 32-BIT (Feb 26 2008) winnt ******                   
 ******  
 * ehsan jahangirzadeh 810194554                                                
  ******  job statistics summary           tnom=  25.000 temp=  25.000          
 ******  

           total memory used       4307 kbytes

  # nodes =     295 # elements=     648
  # diodes=       0 # bjts    =       0 # jfets   =       0 # mosfets =     646
  # va device =       0

    analysis           time    # points   tot. iter  conv.iter

    op point           0.61           1         273
    transient          8.89        2001        5406        1884 rev=        11
    readin             0.26
    errchk             0.05
    setup              0.00
    output             0.00
           total cpu time          9.83 seconds
           total elapsed time        10 seconds
               job started at  23:57:12 05/27/2019
               job ended   at  23:57:22 05/27/2019


 Init: hspice initialization file: C:\synopsys\Hspice_A-2008.03\hspice.ini
